﻿{
  "records": [
    {
      "appData": {
        "nwId": null,
        "CMAppName": "StudentRecords",
        "CMLogLevel": "Trace",
        "CMDateTime": "2018-06-12T14:49:21.000Z",
        "CMMethodOrigination": "createRecord2",
        "CMUserName": "Success Smith",
        "CMMachineName": null,
        "CMCallSite": null,
        "CMLogger": null,
        "CMMessage": "Test: Trace activated",
        "nwExternalId": null,
        "nwCreatedByUser": null,
        "nwCreatedDate": null,
        "nwLastModifiedByUser": null,
        "nwLastModifiedDate": "",
        "nwTenantStripe": null,
        "AttachmentGroupId": null,
        "znwWorkflowInstance": {},
        "znwOwner": null,
        "znwLocked": false,
        "znwSparseOwner": null,
        "nwNateId": null,
        "nwNateDisposition": null,
        "InternalSeq": null,
        "nwBaseVersion": ""
      },
      "version": "MjAxOC0wNi0xNVQxNDo0OToyOS45ODha",
      "nateDisposition": "INSERTED"
    }
  ],
  "clientState": {
    "RootNwId": "4ee0de46-70ab-11e8-a7f6-024748a877aa",
    "SaveType": "autosave",
    "ApplicationName": "CMDBLogging"
  },
  "createContainer": false,
  "commitContainer": false
}